{
  "kind": "collectionType",
  "collectionName": "plattenkosmos_recurring_events",
  "info": {
    "singularName": "plattenkosmos-recurring-event",
    "pluralName": "plattenkosmos-recurring-events",
    "displayName": "[Plattenkosmos] Regelmäßige Termine",
    "description": ""
  },
  "options": {
    "draftAndPublish": true
  },
  "pluginOptions": {},
  "attributes": {
    "Title": {
      "type": "string",
      "required": true,
      "maxLength": 100
    },
    "MainImage": {
      "type": "media",
      "multiple": false,
      "required": false,
      "allowedTypes": [
        "images"
      ]
    },
    "Content": {
      "type": "richtext",
      "required": true
    },
    "Pictures": {
      "type": "media",
      "multiple": true,
      "required": false,
      "allowedTypes": [
        "images"
      ]
    },
    "RecurringDate": {
      "type": "string",
      "required": true
    },
    "Slug": {
      "type": "uid",
      "targetField": "Title",
      "required": true
    }
  }
}
